Project 1: Exploratory Data Analysis
…
joineddata<- joineddata %>% mutate("prop_sorghum_land"=`SORGHUM.ACRES.HARVEST:T:NS`/total_area_acres)

fivenum(joineddata$prop_sorghum_land)

## [1] 8.326228e-05 2.562122e-03 8.824681e-03 2.102870e-02 2.496195e-01

joineddata <- joineddata %>% mutate(prop_sorghum_land_cat=cut(prop_sorghum_land, breaks=c(8.326228e-05, 2.562122e-03, 8.824681e-03, 2.102870e-02, 2.496195e-01), labels=c("Q1", "Q2","Q3","Q4")))

#STATS FOR NUMERIC UNGROUPED

#`CORN.SALES.USD:T:NS`--- Corn sales for the year in USD
joineddata %>% select(County, Year, `CORN.SALES.USD:T:NS`) %>% filter(!is.na(`CORN.SALES.USD:T:NS`))%>%  summarize(mean=mean(`CORN.SALES.USD:T:NS`, na.rm=T),sd=sd(`CORN.SALES.USD:T:NS`, na.rm=T), n=n(), quantile=quantile(`CORN.SALES.USD:T:NS`, na.rm=T), min=min(`CORN.SALES.USD:T:NS`, na.rm=T), max=max(`CORN.SALES.USD:T:NS`, na.rm=T), n_distinct=n_distinct(`CORN.SALES.USD:T:NS`, na.rm=T)) %>% arrange(County)

## # A tibble: 700 x 8
## # Groups:   County [140]
##    County       mean      sd     n quantile     min     max n_distinct
##    <chr>       <dbl>   <dbl> <int>    <dbl>   <dbl>   <dbl>      <int>
##  1 ANDERSON   784500 559321.     2   389000  389000 1180000          2
##  2 ANDERSON   784500 559321.     2   586750  389000 1180000          2
##  3 ANDERSON   784500 559321.     2   784500  389000 1180000          2
##  4 ANDERSON   784500 559321.     2   982250  389000 1180000          2
##  5 ANDERSON   784500 559321.     2  1180000  389000 1180000          2
##  6 ARMSTRONG 1653000     NA      1  1653000 1653000 1653000          1
##  7 ARMSTRONG 1653000     NA      1  1653000 1653000 1653000          1
##  8 ARMSTRONG 1653000     NA      1  1653000 1653000 1653000          1
##  9 ARMSTRONG 1653000     NA      1  1653000 1653000 1653000          1
## 10 ARMSTRONG 1653000     NA      1  1653000 1653000 1653000          1
## # ... with 690 more rows

#`SORGHUM.SALES.USD:T:NS`---sorghum sales for the year in USD

joineddata %>% select(County, Year, `SORGHUM.SALES.USD:T:NS`) %>% filter(!is.na(`SORGHUM.SALES.USD:T:NS`))%>%  summarize(mean=mean(`SORGHUM.SALES.USD:T:NS`, na.rm=T),sd=sd(`SORGHUM.SALES.USD:T:NS`, na.rm=T), n=n(), quantile=quantile(`SORGHUM.SALES.USD:T:NS`, na.rm=T), min=min(`SORGHUM.SALES.USD:T:NS`, na.rm=T), max=max(`SORGHUM.SALES.USD:T:NS`, na.rm=T), n_distinct=n_distinct(`SORGHUM.SALES.USD:T:NS`, na.rm=T)) %>% arrange(County)

## # A tibble: 700 x 8
## # Groups:   County [140]
##    County      mean    sd     n quantile     min     max n_distinct
##    <chr>      <dbl> <dbl> <int>    <dbl>   <dbl>   <dbl>      <int>
##  1 ANDERSON   62000    NA     1    62000   62000   62000          1
##  2 ANDERSON   62000    NA     1    62000   62000   62000          1
##  3 ANDERSON   62000    NA     1    62000   62000   62000          1
##  4 ANDERSON   62000    NA     1    62000   62000   62000          1
##  5 ANDERSON   62000    NA     1    62000   62000   62000          1
##  6 ANDREWS  1149000    NA     1  1149000 1149000 1149000          1
##  7 ANDREWS  1149000    NA     1  1149000 1149000 1149000          1
##  8 ANDREWS  1149000    NA     1  1149000 1149000 1149000          1
##  9 ANDREWS  1149000    NA     1  1149000 1149000 1149000          1
## 10 ANDREWS  1149000    NA     1  1149000 1149000 1149000          1
## # ... with 690 more rows

#`SORGHUM.ACRES.HARVEST:T:NS`---acres of sorghum harvested for the year

joineddata %>% select(County, Year, `SORGHUM.ACRES.HARVEST:T:NS`) %>% filter(!is.na(`SORGHUM.ACRES.HARVEST:T:NS`))%>%  summarize(mean=mean(`SORGHUM.ACRES.HARVEST:T:NS`, na.rm=T),sd=sd(`SORGHUM.ACRES.HARVEST:T:NS`, na.rm=T), n=n(), quantile=quantile(`SORGHUM.ACRES.HARVEST:T:NS`, na.rm=T), min=min(`SORGHUM.ACRES.HARVEST:T:NS`, na.rm=T), max=max(`SORGHUM.ACRES.HARVEST:T:NS`, na.rm=T), n_distinct=n_distinct(`SORGHUM.ACRES.HARVEST:T:NS`, na.rm=T))%>% arrange(County)

## # A tibble: 745 x 8
## # Groups:   County [149]
##    County   mean    sd     n quantile   min   max n_distinct
##    <chr>   <dbl> <dbl> <int>    <dbl> <dbl> <dbl>      <int>
##  1 ANDREWS  3856    NA     1     3856  3856  3856          1
##  2 ANDREWS  3856    NA     1     3856  3856  3856          1
##  3 ANDREWS  3856    NA     1     3856  3856  3856          1
##  4 ANDREWS  3856    NA     1     3856  3856  3856          1
##  5 ANDREWS  3856    NA     1     3856  3856  3856          1
##  6 ARCHER    524    NA     1      524   524   524          1
##  7 ARCHER    524    NA     1      524   524   524          1
##  8 ARCHER    524    NA     1      524   524   524          1
##  9 ARCHER    524    NA     1      524   524   524          1
## 10 ARCHER    524    NA     1      524   524   524          1
## # ... with 735 more rows

#`SORGHUM.OPERATIONS.WAREA:AH:(1-24)`---number of operations in the county that grow sorghum on land between 1 and 24.9 acres in size

joineddata %>% select(County, Year, `SORGHUM.OPERATIONS.WAREA:AH:(1-24)`) %>% filter(!is.na(`SORGHUM.OPERATIONS.WAREA:AH:(1-24)`))%>%  summarize(mean=mean(`SORGHUM.OPERATIONS.WAREA:AH:(1-24)`, na.rm=T),sd=sd(`SORGHUM.OPERATIONS.WAREA:AH:(1-24)`, na.rm=T), n=n(), quantile=quantile(`SORGHUM.OPERATIONS.WAREA:AH:(1-24)`, na.rm=T), min=min(`SORGHUM.OPERATIONS.WAREA:AH:(1-24)`, na.rm=T), max=max(`SORGHUM.OPERATIONS.WAREA:AH:(1-24)`, na.rm=T), n_distinct=n_distinct(`SORGHUM.OPERATIONS.WAREA:AH:(1-24)`, na.rm=T))%>% arrange(County)

## # A tibble: 530 x 8
## # Groups:   County [106]
##    County     mean     sd     n quantile   min   max n_distinct
##    <chr>     <dbl>  <dbl> <int>    <dbl> <dbl> <dbl>      <int>
##  1 ANDERSON    1   NA         1     1        1     1          1
##  2 ANDERSON    1   NA         1     1        1     1          1
##  3 ANDERSON    1   NA         1     1        1     1          1
##  4 ANDERSON    1   NA         1     1        1     1          1
##  5 ANDERSON    1   NA         1     1        1     1          1
##  6 ARMSTRONG   2.5  0.707     2     2        2     3          2
##  7 ARMSTRONG   2.5  0.707     2     2.25     2     3          2
##  8 ARMSTRONG   2.5  0.707     2     2.5      2     3          2
##  9 ARMSTRONG   2.5  0.707     2     2.75     2     3          2
## 10 ARMSTRONG   2.5  0.707     2     3        2     3          2
## # ... with 520 more rows

#`SORGHUM.OPERATIONS.WAREA:AH:(25-99)`---number of operations in the county that grow sorghum on land between 25 and 99.9 acres in size

joineddata %>% select(County, Year, `SORGHUM.OPERATIONS.WAREA:AH:(25-99)`) %>% filter(!is.na(`SORGHUM.OPERATIONS.WAREA:AH:(25-99)`))%>%  summarize(mean=mean(`SORGHUM.OPERATIONS.WAREA:AH:(25-99)`, na.rm=T),sd=sd(`SORGHUM.OPERATIONS.WAREA:AH:(25-99)`, na.rm=T), n=n(), quantile=quantile(`SORGHUM.OPERATIONS.WAREA:AH:(25-99)`, na.rm=T), min=min(`SORGHUM.OPERATIONS.WAREA:AH:(25-99)`, na.rm=T), max=max(`SORGHUM.OPERATIONS.WAREA:AH:(25-99)`, na.rm=T), n_distinct=n_distinct(`SORGHUM.OPERATIONS.WAREA:AH:(25-99)`, na.rm=T))%>% arrange(County)

## # A tibble: 755 x 8
## # Groups:   County [151]
##    County    mean    sd     n quantile   min   max n_distinct
##    <chr>    <dbl> <dbl> <int>    <dbl> <dbl> <dbl>      <int>
##  1 ANDERSON     1    NA     1        1     1     1          1
##  2 ANDERSON     1    NA     1        1     1     1          1
##  3 ANDERSON     1    NA     1        1     1     1          1
##  4 ANDERSON     1    NA     1        1     1     1          1
##  5 ANDERSON     1    NA     1        1     1     1          1
##  6 ARCHER       4    NA     1        4     4     4          1
##  7 ARCHER       4    NA     1        4     4     4          1
##  8 ARCHER       4    NA     1        4     4     4          1
##  9 ARCHER       4    NA     1        4     4     4          1
## 10 ARCHER       4    NA     1        4     4     4          1
## # ... with 745 more rows

#`SORGHUM.OPERATIONS.WAREA:AH:(100-249)`---number of operations in the county that grow sorghum on land between 100 and 249 acres in size

joineddata %>% select(County, Year, `SORGHUM.OPERATIONS.WAREA:AH:(100-249)`) %>% filter(!is.na(`SORGHUM.OPERATIONS.WAREA:AH:(100-249)`))%>%  summarize(mean=mean(`SORGHUM.OPERATIONS.WAREA:AH:(100-249)`, na.rm=T),sd=sd(`SORGHUM.OPERATIONS.WAREA:AH:(100-249)`, na.rm=T), n=n(), quantile=quantile(`SORGHUM.OPERATIONS.WAREA:AH:(100-249)`, na.rm=T), min=min(`SORGHUM.OPERATIONS.WAREA:AH:(100-249)`, na.rm=T), max=max(`SORGHUM.OPERATIONS.WAREA:AH:(100-249)`, na.rm=T), n_distinct=n_distinct(`SORGHUM.OPERATIONS.WAREA:AH:(100-249)`, na.rm=T))%>% arrange(County)

## # A tibble: 750 x 8
## # Groups:   County [150]
##    County     mean    sd     n quantile   min   max n_distinct
##    <chr>     <dbl> <dbl> <int>    <dbl> <dbl> <dbl>      <int>
##  1 ARCHER      2    0        2     2        2     2          1
##  2 ARCHER      2    0        2     2        2     2          1
##  3 ARCHER      2    0        2     2        2     2          1
##  4 ARCHER      2    0        2     2        2     2          1
##  5 ARCHER      2    0        2     2        2     2          1
##  6 ARMSTRONG   4.5  2.12     2     3        3     6          2
##  7 ARMSTRONG   4.5  2.12     2     3.75     3     6          2
##  8 ARMSTRONG   4.5  2.12     2     4.5      3     6          2
##  9 ARMSTRONG   4.5  2.12     2     5.25     3     6          2
## 10 ARMSTRONG   4.5  2.12     2     6        3     6          2
## # ... with 740 more rows

#`SORGHUM.OPERATIONS.WAREA:AH:(250-499)`---number of operations in the county that grow sorghum on land between 250 and 499 acres in size

joineddata %>% select(County, Year, `SORGHUM.OPERATIONS.WAREA:AH:(250-499)`) %>% filter(!is.na(`SORGHUM.OPERATIONS.WAREA:AH:(250-499)`))%>%  summarize(mean=mean(`SORGHUM.OPERATIONS.WAREA:AH:(250-499)`, na.rm=T),sd=sd(`SORGHUM.OPERATIONS.WAREA:AH:(250-499)`, na.rm=T), n=n(), quantile=quantile(`SORGHUM.OPERATIONS.WAREA:AH:(250-499)`, na.rm=T), min=min(`SORGHUM.OPERATIONS.WAREA:AH:(250-499)`, na.rm=T), max=max(`SORGHUM.OPERATIONS.WAREA:AH:(250-499)`, na.rm=T), n_distinct=n_distinct(`SORGHUM.OPERATIONS.WAREA:AH:(250-499)`, na.rm=T))%>% arrange(County)

## # A tibble: 680 x 8
## # Groups:   County [136]
##    County     mean    sd     n quantile   min   max n_distinct
##    <chr>     <dbl> <dbl> <int>    <dbl> <dbl> <dbl>      <int>
##  1 ANDREWS       1 NA        1        1     1     1          1
##  2 ANDREWS       1 NA        1        1     1     1          1
##  3 ANDREWS       1 NA        1        1     1     1          1
##  4 ANDREWS       1 NA        1        1     1     1          1
##  5 ANDREWS       1 NA        1        1     1     1          1
##  6 ARMSTRONG     7  2.83     2        5     5     9          2
##  7 ARMSTRONG     7  2.83     2        6     5     9          2
##  8 ARMSTRONG     7  2.83     2        7     5     9          2
##  9 ARMSTRONG     7  2.83     2        8     5     9          2
## 10 ARMSTRONG     7  2.83     2        9     5     9          2
## # ... with 670 more rows

#`SORGHUM.OPERATIONS.WAREA:AH:(500-999)`---number of operations in the county that grow sorghum on land between 500 and 999 acres in size

joineddata %>% select(County, Year, `SORGHUM.OPERATIONS.WAREA:AH:(500-999)`) %>% filter(!is.na(`SORGHUM.OPERATIONS.WAREA:AH:(500-999)`))%>%  summarize(mean=mean(`SORGHUM.OPERATIONS.WAREA:AH:(500-999)`, na.rm=T),sd=sd(`SORGHUM.OPERATIONS.WAREA:AH:(500-999)`, na.rm=T), n=n(), quantile=quantile(`SORGHUM.OPERATIONS.WAREA:AH:(500-999)`, na.rm=T), min=min(`SORGHUM.OPERATIONS.WAREA:AH:(500-999)`, na.rm=T), max=max(`SORGHUM.OPERATIONS.WAREA:AH:(500-999)`, na.rm=T), n_distinct=n_distinct(`SORGHUM.OPERATIONS.WAREA:AH:(500-999)`, na.rm=T))%>% arrange(County)

## # A tibble: 605 x 8
## # Groups:   County [121]
##    County     mean    sd     n quantile   min   max n_distinct
##    <chr>     <dbl> <dbl> <int>    <dbl> <dbl> <dbl>      <int>
##  1 ARMSTRONG   4.5 0.707     2     4        4     5          2
##  2 ARMSTRONG   4.5 0.707     2     4.25     4     5          2
##  3 ARMSTRONG   4.5 0.707     2     4.5      4     5          2
##  4 ARMSTRONG   4.5 0.707     2     4.75     4     5          2
##  5 ARMSTRONG   4.5 0.707     2     5        4     5          2
##  6 ATASCOSA    1.5 0.707     2     1        1     2          2
##  7 ATASCOSA    1.5 0.707     2     1.25     1     2          2
##  8 ATASCOSA    1.5 0.707     2     1.5      1     2          2
##  9 ATASCOSA    1.5 0.707     2     1.75     1     2          2
## 10 ATASCOSA    1.5 0.707     2     2        1     2          2
## # ... with 595 more rows

#`SORGHUM.OPERATIONS.WAREA:AH:(1000+)`---number of operations in the county that grow sorghum on land greater than or equal to 1000 acres in size

joineddata %>% select(County, Year, `SORGHUM.OPERATIONS.WAREA:AH:(1000+)`) %>% filter(!is.na(`SORGHUM.OPERATIONS.WAREA:AH:(1000+)`))%>%  summarize(mean=mean(`SORGHUM.OPERATIONS.WAREA:AH:(1000+)`, na.rm=T),sd=sd(`SORGHUM.OPERATIONS.WAREA:AH:(1000+)`, na.rm=T), n=n(), quantile=quantile(`SORGHUM.OPERATIONS.WAREA:AH:(1000+)`, na.rm=T), min=min(`SORGHUM.OPERATIONS.WAREA:AH:(1000+)`, na.rm=T), max=max(`SORGHUM.OPERATIONS.WAREA:AH:(1000+)`, na.rm=T), n_distinct=n_distinct(`SORGHUM.OPERATIONS.WAREA:AH:(1000+)`, na.rm=T))%>% arrange(County)

## # A tibble: 455 x 8
## # Groups:   County [91]
##    County     mean    sd     n quantile   min   max n_distinct
##    <chr>     <dbl> <dbl> <int>    <dbl> <dbl> <dbl>      <int>
##  1 ANDREWS       3 NA        1        3     3     3          1
##  2 ANDREWS       3 NA        1        3     3     3          1
##  3 ANDREWS       3 NA        1        3     3     3          1
##  4 ANDREWS       3 NA        1        3     3     3          1
##  5 ANDREWS       3 NA        1        3     3     3          1
##  6 ARMSTRONG     3  2.83     2        1     1     5          2
##  7 ARMSTRONG     3  2.83     2        2     1     5          2
##  8 ARMSTRONG     3  2.83     2        3     1     5          2
##  9 ARMSTRONG     3  2.83     2        4     1     5          2
## 10 ARMSTRONG     3  2.83     2        5     1     5          2
## # ... with 445 more rows

#`SORGHUM.OPERATIONS.WAREA:T:NS`---total number of operations in the county growing sorghum

joineddata %>% select(County, Year, `SORGHUM.OPERATIONS.WAREA:T:NS`) %>% filter(!is.na(`SORGHUM.OPERATIONS.WAREA:T:NS`))%>%  summarize(mean=mean(`SORGHUM.OPERATIONS.WAREA:T:NS`, na.rm=T),sd=sd(`SORGHUM.OPERATIONS.WAREA:T:NS`, na.rm=T), n=n(), quantile=quantile(`SORGHUM.OPERATIONS.WAREA:T:NS`, na.rm=T), min=min(`SORGHUM.OPERATIONS.WAREA:T:NS`, na.rm=T), max=max(`SORGHUM.OPERATIONS.WAREA:T:NS`, na.rm=T), n_distinct=n_distinct(`SORGHUM.OPERATIONS.WAREA:T:NS`, na.rm=T))%>% arrange(County)

## # A tibble: 960 x 8
## # Groups:   County [192]
##    County    mean    sd     n quantile   min   max n_distinct
##    <chr>    <dbl> <dbl> <int>    <dbl> <dbl> <dbl>      <int>
##  1 ANDERSON     2 NA        1      2       2     2          1
##  2 ANDERSON     2 NA        1      2       2     2          1
##  3 ANDERSON     2 NA        1      2       2     2          1
##  4 ANDERSON     2 NA        1      2       2     2          1
##  5 ANDERSON     2 NA        1      2       2     2          1
##  6 ANDREWS      2  1.41     2      1       1     3          2
##  7 ANDREWS      2  1.41     2      1.5     1     3          2
##  8 ANDREWS      2  1.41     2      2       1     3          2
##  9 ANDREWS      2  1.41     2      2.5     1     3          2
## 10 ANDREWS      2  1.41     2      3       1     3          2
## # ... with 950 more rows

#land_area--- land area in the county exlcuding water area

joineddata %>% select(County, Year, land_area) %>% filter(!is.na(land_area))%>%  summarize(mean=mean(land_area, na.rm=T),sd=sd(land_area, na.rm=T), n=n(), quantile=quantile(land_area, na.rm=T), min=min(land_area, na.rm=T), max=max(land_area, na.rm=T), n_distinct=n_distinct(land_area, na.rm=T))%>% arrange(County)

## # A tibble: 1,150 x 8
## # Groups:   County [230]
##    County    mean    sd     n quantile   min   max n_distinct
##    <chr>    <dbl> <dbl> <int>    <dbl> <dbl> <dbl>      <int>
##  1 ANDERSON 1063.     0     2    1063. 1063. 1063.          1
##  2 ANDERSON 1063.     0     2    1063. 1063. 1063.          1
##  3 ANDERSON 1063.     0     2    1063. 1063. 1063.          1
##  4 ANDERSON 1063.     0     2    1063. 1063. 1063.          1
##  5 ANDERSON 1063.     0     2    1063. 1063. 1063.          1
##  6 ANDREWS  1501.     0     2    1501. 1501. 1501.          1
##  7 ANDREWS  1501.     0     2    1501. 1501. 1501.          1
##  8 ANDREWS  1501.     0     2    1501. 1501. 1501.          1
##  9 ANDREWS  1501.     0     2    1501. 1501. 1501.          1
## 10 ANDREWS  1501.     0     2    1501. 1501. 1501.          1
## # ... with 1,140 more rows

#pop_density --- population density of the county

joineddata %>% select(County, Year, pop_density) %>% filter(!is.na(pop_density))%>%  summarize(mean=mean(pop_density, na.rm=T),sd=sd(pop_density, na.rm=T), n=n(), quantile=quantile(pop_density, na.rm=T), min=min(pop_density, na.rm=T), max=max(pop_density, na.rm=T), n_distinct=n_distinct(pop_density, na.rm=T))%>% arrange(County)

## # A tibble: 1,150 x 8
## # Groups:   County [230]
##    County    mean    sd     n quantile   min   max n_distinct
##    <chr>    <dbl> <dbl> <int>    <dbl> <dbl> <dbl>      <int>
##  1 ANDERSON  55       0     2     55    55    55            1
##  2 ANDERSON  55       0     2     55    55    55            1
##  3 ANDERSON  55       0     2     55    55    55            1
##  4 ANDERSON  55       0     2     55    55    55            1
##  5 ANDERSON  55       0     2     55    55    55            1
##  6 ANDREWS    9.9     0     2      9.9   9.9   9.9          1
##  7 ANDREWS    9.9     0     2      9.9   9.9   9.9          1
##  8 ANDREWS    9.9     0     2      9.9   9.9   9.9          1
##  9 ANDREWS    9.9     0     2      9.9   9.9   9.9          1
## 10 ANDREWS    9.9     0     2      9.9   9.9   9.9          1
## # ... with 1,140 more rows

#total_area --- total area of the county including water area

joineddata %>% select(County, Year, total_area) %>% filter(!is.na(total_area))%>%  summarize(mean=mean(total_area, na.rm=T),sd=sd(total_area, na.rm=T), n=n(), quantile=quantile(total_area, na.rm=T), min=min(total_area, na.rm=T), max=max(total_area, na.rm=T), n_distinct=n_distinct(total_area, na.rm=T))%>% arrange(County)

## # A tibble: 1,150 x 8
## # Groups:   County [230]
##    County    mean    sd     n quantile   min   max n_distinct
##    <chr>    <dbl> <dbl> <int>    <dbl> <dbl> <dbl>      <int>
##  1 ANDERSON 1078      0     2    1078  1078  1078           1
##  2 ANDERSON 1078      0     2    1078  1078  1078           1
##  3 ANDERSON 1078      0     2    1078  1078  1078           1
##  4 ANDERSON 1078      0     2    1078  1078  1078           1
##  5 ANDERSON 1078      0     2    1078  1078  1078           1
##  6 ANDREWS  1501.     0     2    1501. 1501. 1501.          1
##  7 ANDREWS  1501.     0     2    1501. 1501. 1501.          1
##  8 ANDREWS  1501.     0     2    1501. 1501. 1501.          1
##  9 ANDREWS  1501.     0     2    1501. 1501. 1501.          1
## 10 ANDREWS  1501.     0     2    1501. 1501. 1501.          1
## # ... with 1,140 more rows
…
